Logistic Regression
…
n_sim <- 500

sim_data <- purrr::map_df(1:n_sim, function(iter) {
  fake_data <- simulate_logit_model(200, alpha, beta)%>% 
  mutate(population_pr = invlogit(alpha + beta*x)) %>% 
    mutate(sim = paste0("sim_", iter)) %>% 
    as_tibble()
  return(fake_data)
})

sim_data %>% 
  count(sim)

## # A tibble: 500 x 2
##    sim         n
##    <chr>   <int>
##  1 sim_1     200
##  2 sim_10    200
##  3 sim_100   200
##  4 sim_101   200
##  5 sim_102   200
##  6 sim_103   200
##  7 sim_104   200
##  8 sim_105   200
##  9 sim_106   200
## 10 sim_107   200
## # ... with 490 more rows
…
